{
  "project_info": {
    "project_number": "944099833480",
    "project_id": "netxmail",
    "storage_bucket": "netxmail.appspot.com"
  },
  "client": [
    {
      "client_info": {
        "mobilesdk_app_id": "1:944099833480:android:e1b6d525df76ef9e6fd13d",
        "android_client_info": {
          "package_name": "jp.netx.netxmail"
        }
      },
      "oauth_client": [
        {
          "client_id": "944099833480-5oohnqcqlfqkfbs776qqp8jigs5537q7.apps.googleusercontent.com",
          "client_type": 3
        }
      ],
      "api_key": [
        {
          "current_key": "AIzaSyAftScq8K1b5P6bdiPS8oIwsuB6JawL5ZA"
        }
      ],
      "services": {
        "appinvite_service": {
          "other_platform_oauth_client": [
            {
              "client_id": "944099833480-5oohnqcqlfqkfbs776qqp8jigs5537q7.apps.googleusercontent.com",
              "client_type": 3
            }
          ]
        }
      }
    }
  ],
  "configuration_version": "1"
}